<svg width="48" height="48" viewBox="0 0 48 48" fill="none" xmlns="http://www.w3.org/2000/svg">
<circle cx="24.2501" cy="23.8922" r="23" stroke="#979797"/>
<path d="M10.0214 37.8446C10.0214 38.0054 10.0214 38.1661 10.0214 38.3268H13.8588C13.8588 38.1661 13.8588 38.0054 13.8588 37.8446C13.8661 31.3366 16.4543 25.0971 21.0559 20.4949C25.6574 15.8926 31.8965 13.3034 38.4045 13.2951H38.4555V9.45758H38.4123C30.8852 9.46381 23.668 12.4565 18.3451 17.7786C13.0223 23.1007 10.0286 30.3175 10.0214 37.8446Z" fill="#C4C4C4"/>
<path d="M18.4648 37.8447C18.4648 38.0054 18.4648 38.1661 18.4648 38.3268H22.2983C22.2983 38.1661 22.2983 38.0054 22.2983 37.8447C22.3035 33.5735 24.0025 29.4788 27.0227 26.4587C30.0428 23.4385 34.1375 21.7396 38.4086 21.7344H38.4557C38.4557 20.4604 38.4557 19.1747 38.4557 17.9008H38.4047C33.1179 17.9081 28.0497 20.0118 24.3117 23.7505C20.5737 27.4892 18.471 32.5578 18.4648 37.8447Z" fill="#C4C4C4"/>
<path d="M26.8962 37.8447C26.8962 38.0054 26.8962 38.1661 26.8962 38.3269H30.7415C30.7415 38.1661 30.718 38.0054 30.718 37.8447C30.72 35.8109 31.5289 33.8609 32.9671 32.4228C34.4052 30.9847 36.3551 30.1758 38.389 30.1737H38.4791C38.4791 28.9664 38.4791 27.6768 38.4791 26.3362H38.4047C35.3534 26.3394 32.428 27.5529 30.2704 29.7104C28.1128 31.868 26.8993 34.7934 26.8962 37.8447Z" fill="#C4C4C4"/>
</svg>
