<svg width="100" height="85" viewBox="0 0 100 85" fill="none" xmlns="http://www.w3.org/2000/svg">
<mask id="mask0" mask-type="alpha" maskUnits="userSpaceOnUse" x="0" y="0" width="100" height="85">
<rect y="0.27832" width="99.182" height="84.2206" fill="#C4C4C4"/>
</mask>
<g mask="url(#mask0)">
<path d="M36.0566 150.76C57.6171 136.857 78.9402 120.54 90.4298 97.6348C101.919 74.7296 100.726 43.5437 81.4036 26.653C70.3412 16.9991 55.3876 13.3223 41.1068 9.96394C21.4652 5.36772 1.07152 0.746939 -18.7389 4.66163C-30.5943 7.00346 -41.6142 12.3213 -52.1184 18.2691C-73.1415 30.3141 -92.5347 45.1879 -109.546 62.4117C-116.707 69.6482 -123.857 78.2943 -123.969 88.4964C-124.031 95.1816 -121.035 101.467 -118.114 107.493C-103.781 136.842 -87.5531 168.116 -58.3435 182.72C-46.4828 188.655 -30.5048 194.421 -18.1054 187.882C0.400329 178.127 18.2339 162.243 36.0566 150.76Z" fill="#550096"/>
</g>
<path fill-rule="evenodd" clip-rule="evenodd" d="M32.8242 54.481C32.4146 54.0667 32.4146 53.3973 32.8242 52.9819L42.5461 43.1394C43.1374 42.54 44.0995 42.54 44.6919 43.1394C45.2833 43.7388 45.2833 44.7117 44.6919 45.3111L36.3754 53.732L44.6919 62.1508C45.2833 62.7513 45.2833 63.7241 44.6919 64.3236C44.0995 64.923 43.1374 64.923 42.5461 64.3236L32.8242 54.481Z" fill="white"/>
</svg>
